Project: Modeling with Classification Trees
…
## Rows: 29504 Columns: 14
## -- Column specification --------------------------------------------------------
## Delimiter: ","
## dbl (14): answered, income, female, age, job, num_dependents, rent, own_res,...
## 
## i Use `spec()` to retrieve the full column specification for this data.
## i Specify the column types or set `show_col_types = FALSE` to quiet this message.

advise_invest

## # A tibble: 29,499 x 13
##    answered income female   age job   num_dependents rent  own_res new_car
##    <fct>     <dbl> <fct>  <dbl> <fct>          <dbl> <fct> <fct>   <fct>  
##  1 yes       13520 0         23 0                  1 1     0       0      
##  2 no        14780 0         22 2                  1 0     1       0      
##  3 yes       37570 0         62 2                  1 0     0       1      
##  4 no        12450 0         33 2                  1 0     1       0      
##  5 no        12400 0         48 1                  2 0     0       1      
##  6 yes       14030 0         28 2                  1 1     0       1      
##  7 yes        9320 0         24 2                  1 0     1       0      
##  8 yes       11750 0         68 0                  1 0     0       1      
##  9 yes       69670 0         36 3                  1 1     0       0      
## 10 yes        3380 0         52 2                  1 0     1       0      
## # ... with 29,489 more rows, and 4 more variables: chk_acct <fct>,
## #   sav_acct <fct>, num_accts <dbl>, mobile <fct>

a <- advise_invest
a

## # A tibble: 29,499 x 13
##    answered income female   age job   num_dependents rent  own_res new_car
##    <fct>     <dbl> <fct>  <dbl> <fct>          <dbl> <fct> <fct>   <fct>  
##  1 yes       13520 0         23 0                  1 1     0       0      
##  2 no        14780 0         22 2                  1 0     1       0      
##  3 yes       37570 0         62 2                  1 0     0       1      
##  4 no        12450 0         33 2                  1 0     1       0      
##  5 no        12400 0         48 1                  2 0     0       1      
##  6 yes       14030 0         28 2                  1 1     0       1      
##  7 yes        9320 0         24 2                  1 0     1       0      
##  8 yes       11750 0         68 0                  1 0     0       1      
##  9 yes       69670 0         36 3                  1 1     0       0      
## 10 yes        3380 0         52 2                  1 0     1       0      
## # ... with 29,489 more rows, and 4 more variables: chk_acct <fct>,
## #   sav_acct <fct>, num_accts <dbl>, mobile <fct>
…
